('/mnt/c/Users/paulwilk/code/bitbucket/stuff/vman/dist/vman',
 True,
 False,
 False,
 None,
 None,
 False,
 False,
 None,
 True,
 True,
 None,
 None,
 None,
 '/mnt/c/Users/paulwilk/code/bitbucket/stuff/vman/build/vman/vman.pkg',
 [('PYZ-00.pyz',
   '/mnt/c/Users/paulwilk/code/bitbucket/stuff/vman/build/vman/PYZ-00.pyz',
   'PYZ'),
  ('lib-dynload/_struct',
   '/usr/lib64/python3.9/lib-dynload/_struct.cpython-39-x86_64-linux-gnu.so',
   'EXTENSION'),
  ('lib-dynload/zlib',
   '/usr/lib64/python3.9/lib-dynload/zlib.cpython-39-x86_64-linux-gnu.so',
   'EXTENSION'),
  ('struct',
   '/mnt/c/Users/paulwilk/code/bitbucket/stuff/vman/build/vman/localpycos/struct.pyo',
   'PYMODULE'),
  ('pyimod01_os_path',
   '/home/vlku/.local/lib/python3.9/site-packages/PyInstaller/loader/pyimod01_os_path.pyc',
   'PYMODULE'),
  ('pyimod02_archive',
   '/home/vlku/.local/lib/python3.9/site-packages/PyInstaller/loader/pyimod02_archive.pyc',
   'PYMODULE'),
  ('pyimod03_importers',
   '/home/vlku/.local/lib/python3.9/site-packages/PyInstaller/loader/pyimod03_importers.pyc',
   'PYMODULE'),
  ('pyimod04_ctypes',
   '/home/vlku/.local/lib/python3.9/site-packages/PyInstaller/loader/pyimod04_ctypes.pyc',
   'PYMODULE'),
  ('pyiboot01_bootstrap',
   '/home/vlku/.local/lib/python3.9/site-packages/PyInstaller/loader/pyiboot01_bootstrap.py',
   'PYSOURCE'),
  ('pyi_rth_pkgutil',
   '/home/vlku/.local/lib/python3.9/site-packages/PyInstaller/hooks/rthooks/pyi_rth_pkgutil.py',
   'PYSOURCE'),
  ('pyi_rth_multiprocessing',
   '/home/vlku/.local/lib/python3.9/site-packages/PyInstaller/hooks/rthooks/pyi_rth_multiprocessing.py',
   'PYSOURCE'),
  ('pyi_rth_inspect',
   '/home/vlku/.local/lib/python3.9/site-packages/PyInstaller/hooks/rthooks/pyi_rth_inspect.py',
   'PYSOURCE'),
  ('pyi_rth_certifi',
   '/home/vlku/.local/lib/python3.9/site-packages/_pyinstaller_hooks_contrib/hooks/rthooks/pyi_rth_certifi.py',
   'PYSOURCE'),
  ('vman',
   '/mnt/c/Users/paulwilk/code/bitbucket/stuff/vman/src/vman.py',
   'PYSOURCE'),
  ('libpython3.9.so.1.0', '/lib64/libpython3.9.so.1.0', 'BINARY'),
  ('lib-dynload/_datetime',
   '/usr/lib64/python3.9/lib-dynload/_datetime.cpython-39-x86_64-linux-gnu.so',
   'EXTENSION'),
  ('lib-dynload/math',
   '/usr/lib64/python3.9/lib-dynload/math.cpython-39-x86_64-linux-gnu.so',
   'EXTENSION'),
  ('lib-dynload/binascii',
   '/usr/lib64/python3.9/lib-dynload/binascii.cpython-39-x86_64-linux-gnu.so',
   'EXTENSION'),
  ('lib-dynload/array',
   '/usr/lib64/python3.9/lib-dynload/array.cpython-39-x86_64-linux-gnu.so',
   'EXTENSION'),
  ('lib-dynload/select',
   '/usr/lib64/python3.9/lib-dynload/select.cpython-39-x86_64-linux-gnu.so',
   'EXTENSION'),
  ('lib-dynload/_socket',
   '/usr/lib64/python3.9/lib-dynload/_socket.cpython-39-x86_64-linux-gnu.so',
   'EXTENSION'),
  ('lib-dynload/_ssl',
   '/usr/lib64/python3.9/lib-dynload/_ssl.cpython-39-x86_64-linux-gnu.so',
   'EXTENSION'),
  ('lib-dynload/_statistics',
   '/usr/lib64/python3.9/lib-dynload/_statistics.cpython-39-x86_64-linux-gnu.so',
   'EXTENSION'),
  ('lib-dynload/_contextvars',
   '/usr/lib64/python3.9/lib-dynload/_contextvars.cpython-39-x86_64-linux-gnu.so',
   'EXTENSION'),
  ('lib-dynload/_decimal',
   '/usr/lib64/python3.9/lib-dynload/_decimal.cpython-39-x86_64-linux-gnu.so',
   'EXTENSION'),
  ('lib-dynload/_posixsubprocess',
   '/usr/lib64/python3.9/lib-dynload/_posixsubprocess.cpython-39-x86_64-linux-gnu.so',
   'EXTENSION'),
  ('lib-dynload/grp',
   '/usr/lib64/python3.9/lib-dynload/grp.cpython-39-x86_64-linux-gnu.so',
   'EXTENSION'),
  ('lib-dynload/_queue',
   '/usr/lib64/python3.9/lib-dynload/_queue.cpython-39-x86_64-linux-gnu.so',
   'EXTENSION'),
  ('lib-dynload/mmap',
   '/usr/lib64/python3.9/lib-dynload/mmap.cpython-39-x86_64-linux-gnu.so',
   'EXTENSION'),
  ('lib-dynload/_posixshmem',
   '/usr/lib64/python3.9/lib-dynload/_posixshmem.cpython-39-x86_64-linux-gnu.so',
   'EXTENSION'),
  ('lib-dynload/_ctypes',
   '/usr/lib64/python3.9/lib-dynload/_ctypes.cpython-39-x86_64-linux-gnu.so',
   'EXTENSION'),
  ('lib-dynload/_multiprocessing',
   '/usr/lib64/python3.9/lib-dynload/_multiprocessing.cpython-39-x86_64-linux-gnu.so',
   'EXTENSION'),
  ('lib-dynload/pyexpat',
   '/usr/lib64/python3.9/lib-dynload/pyexpat.cpython-39-x86_64-linux-gnu.so',
   'EXTENSION'),
  ('lib-dynload/termios',
   '/usr/lib64/python3.9/lib-dynload/termios.cpython-39-x86_64-linux-gnu.so',
   'EXTENSION'),
  ('lib-dynload/unicodedata',
   '/usr/lib64/python3.9/lib-dynload/unicodedata.cpython-39-x86_64-linux-gnu.so',
   'EXTENSION'),
  ('lib-dynload/_asyncio',
   '/usr/lib64/python3.9/lib-dynload/_asyncio.cpython-39-x86_64-linux-gnu.so',
   'EXTENSION'),
  ('lib-dynload/readline',
   '/usr/lib64/python3.9/lib-dynload/readline.cpython-39-x86_64-linux-gnu.so',
   'EXTENSION'),
  ('lib-dynload/_pickle',
   '/usr/lib64/python3.9/lib-dynload/_pickle.cpython-39-x86_64-linux-gnu.so',
   'EXTENSION'),
  ('lib-dynload/_hashlib',
   '/usr/lib64/python3.9/lib-dynload/_hashlib.cpython-39-x86_64-linux-gnu.so',
   'EXTENSION'),
  ('lib-dynload/_sha3',
   '/usr/lib64/python3.9/lib-dynload/_sha3.cpython-39-x86_64-linux-gnu.so',
   'EXTENSION'),
  ('lib-dynload/_blake2',
   '/usr/lib64/python3.9/lib-dynload/_blake2.cpython-39-x86_64-linux-gnu.so',
   'EXTENSION'),
  ('lib-dynload/_sha256',
   '/usr/lib64/python3.9/lib-dynload/_sha256.cpython-39-x86_64-linux-gnu.so',
   'EXTENSION'),
  ('lib-dynload/_md5',
   '/usr/lib64/python3.9/lib-dynload/_md5.cpython-39-x86_64-linux-gnu.so',
   'EXTENSION'),
  ('lib-dynload/_sha1',
   '/usr/lib64/python3.9/lib-dynload/_sha1.cpython-39-x86_64-linux-gnu.so',
   'EXTENSION'),
  ('lib-dynload/_sha512',
   '/usr/lib64/python3.9/lib-dynload/_sha512.cpython-39-x86_64-linux-gnu.so',
   'EXTENSION'),
  ('lib-dynload/_random',
   '/usr/lib64/python3.9/lib-dynload/_random.cpython-39-x86_64-linux-gnu.so',
   'EXTENSION'),
  ('lib-dynload/_bisect',
   '/usr/lib64/python3.9/lib-dynload/_bisect.cpython-39-x86_64-linux-gnu.so',
   'EXTENSION'),
  ('lib-dynload/resource',
   '/usr/lib64/python3.9/lib-dynload/resource.cpython-39-x86_64-linux-gnu.so',
   'EXTENSION'),
  ('lib-dynload/_lzma',
   '/usr/lib64/python3.9/lib-dynload/_lzma.cpython-39-x86_64-linux-gnu.so',
   'EXTENSION'),
  ('lib-dynload/_bz2',
   '/usr/lib64/python3.9/lib-dynload/_bz2.cpython-39-x86_64-linux-gnu.so',
   'EXTENSION'),
  ('lib-dynload/_csv',
   '/usr/lib64/python3.9/lib-dynload/_csv.cpython-39-x86_64-linux-gnu.so',
   'EXTENSION'),
  ('lib-dynload/_opcode',
   '/usr/lib64/python3.9/lib-dynload/_opcode.cpython-39-x86_64-linux-gnu.so',
   'EXTENSION'),
  ('lib-dynload/_multibytecodec',
   '/usr/lib64/python3.9/lib-dynload/_multibytecodec.cpython-39-x86_64-linux-gnu.so',
   'EXTENSION'),
  ('lib-dynload/_json',
   '/usr/lib64/python3.9/lib-dynload/_json.cpython-39-x86_64-linux-gnu.so',
   'EXTENSION'),
  ('lib-dynload/_heapq',
   '/usr/lib64/python3.9/lib-dynload/_heapq.cpython-39-x86_64-linux-gnu.so',
   'EXTENSION'),
  ('lib-dynload/_codecs_tw',
   '/usr/lib64/python3.9/lib-dynload/_codecs_tw.cpython-39-x86_64-linux-gnu.so',
   'EXTENSION'),
  ('lib-dynload/_codecs_iso2022',
   '/usr/lib64/python3.9/lib-dynload/_codecs_iso2022.cpython-39-x86_64-linux-gnu.so',
   'EXTENSION'),
  ('lib-dynload/_codecs_jp',
   '/usr/lib64/python3.9/lib-dynload/_codecs_jp.cpython-39-x86_64-linux-gnu.so',
   'EXTENSION'),
  ('lib-dynload/_codecs_cn',
   '/usr/lib64/python3.9/lib-dynload/_codecs_cn.cpython-39-x86_64-linux-gnu.so',
   'EXTENSION'),
  ('lib-dynload/_codecs_kr',
   '/usr/lib64/python3.9/lib-dynload/_codecs_kr.cpython-39-x86_64-linux-gnu.so',
   'EXTENSION'),
  ('lib-dynload/_codecs_hk',
   '/usr/lib64/python3.9/lib-dynload/_codecs_hk.cpython-39-x86_64-linux-gnu.so',
   'EXTENSION'),
  ('libz.so.1', '/lib64/libz.so.1', 'BINARY'),
  ('libcrypto.so.1.1', '/lib64/libcrypto.so.1.1', 'BINARY'),
  ('libssl.so.1.1', '/lib64/libssl.so.1.1', 'BINARY'),
  ('libffi.so.6', '/lib64/libffi.so.6', 'BINARY'),
  ('libexpat.so.1', '/lib64/libexpat.so.1', 'BINARY'),
  ('libreadline.so.8', '/lib64/libreadline.so.8', 'BINARY'),
  ('libtinfo.so.6', '/lib64/libtinfo.so.6', 'BINARY'),
  ('liblzma.so.5', '/lib64/liblzma.so.5', 'BINARY'),
  ('libbz2.so.1', '/lib64/libbz2.so.1', 'BINARY'),
  ('base_library.zip',
   '/mnt/c/Users/paulwilk/code/bitbucket/stuff/vman/build/vman/base_library.zip',
   'DATA'),
  ('certifi/cacert.pem',
   '/home/vlku/.local/lib/python3.9/site-packages/certifi/cacert.pem',
   'DATA')],
 [],
 False,
 False,
 1639136689,
 [('run',
   '/home/vlku/.local/lib/python3.9/site-packages/PyInstaller/bootloader/Linux-64bit-intel/run',
   'EXECUTABLE')])
