('/mnt/c/Users/paulwilk/code/bitbucket/stuff/vman/build/vman/PYZ-00.pyz',
 [('ssl', '/usr/lib64/python3.9/ssl.py', 'PYMODULE'),
  ('calendar', '/usr/lib64/python3.9/calendar.py', 'PYMODULE'),
  ('datetime', '/usr/lib64/python3.9/datetime.py', 'PYMODULE'),
  ('_strptime', '/usr/lib64/python3.9/_strptime.py', 'PYMODULE'),
  ('base64', '/usr/lib64/python3.9/base64.py', 'PYMODULE'),
  ('getopt', '/usr/lib64/python3.9/getopt.py', 'PYMODULE'),
  ('gettext', '/usr/lib64/python3.9/gettext.py', 'PYMODULE'),
  ('copy', '/usr/lib64/python3.9/copy.py', 'PYMODULE'),
  ('struct', '/usr/lib64/python3.9/struct.py', 'PYMODULE'),
  ('socket', '/usr/lib64/python3.9/socket.py', 'PYMODULE'),
  ('selectors', '/usr/lib64/python3.9/selectors.py', 'PYMODULE'),
  ('inspect', '/usr/lib64/python3.9/inspect.py', 'PYMODULE'),
  ('importlib', '/usr/lib64/python3.9/importlib/__init__.py', 'PYMODULE'),
  ('importlib._common',
   '/usr/lib64/python3.9/importlib/_common.py',
   'PYMODULE'),
  ('contextlib', '/usr/lib64/python3.9/contextlib.py', 'PYMODULE'),
  ('tempfile', '/usr/lib64/python3.9/tempfile.py', 'PYMODULE'),
  ('random', '/usr/lib64/python3.9/random.py', 'PYMODULE'),
  ('statistics', '/usr/lib64/python3.9/statistics.py', 'PYMODULE'),
  ('decimal', '/usr/lib64/python3.9/decimal.py', 'PYMODULE'),
  ('_pydecimal', '/usr/lib64/python3.9/_pydecimal.py', 'PYMODULE'),
  ('contextvars', '/usr/lib64/python3.9/contextvars.py', 'PYMODULE'),
  ('fractions', '/usr/lib64/python3.9/fractions.py', 'PYMODULE'),
  ('numbers', '/usr/lib64/python3.9/numbers.py', 'PYMODULE'),
  ('hashlib', '/usr/lib64/python3.9/hashlib.py', 'PYMODULE'),
  ('logging', '/usr/lib64/python3.9/logging/__init__.py', 'PYMODULE'),
  ('pickle', '/usr/lib64/python3.9/pickle.py', 'PYMODULE'),
  ('pprint', '/usr/lib64/python3.9/pprint.py', 'PYMODULE'),
  ('doctest', '/usr/lib64/python3.9/doctest.py', 'PYMODULE'),
  ('unittest', '/usr/lib64/python3.9/unittest/__init__.py', 'PYMODULE'),
  ('unittest.async_case',
   '/usr/lib64/python3.9/unittest/async_case.py',
   'PYMODULE'),
  ('asyncio', '/usr/lib64/python3.9/asyncio/__init__.py', 'PYMODULE'),
  ('asyncio.unix_events',
   '/usr/lib64/python3.9/asyncio/unix_events.py',
   'PYMODULE'),
  ('asyncio.log', '/usr/lib64/python3.9/asyncio/log.py', 'PYMODULE'),
  ('subprocess', '/usr/lib64/python3.9/subprocess.py', 'PYMODULE'),
  ('stat', '/usr/lib64/python3.9/stat.py', 'PYMODULE'),
  ('signal', '/usr/lib64/python3.9/signal.py', 'PYMODULE'),
  ('asyncio.windows_events',
   '/usr/lib64/python3.9/asyncio/windows_events.py',
   'PYMODULE'),
  ('asyncio.windows_utils',
   '/usr/lib64/python3.9/asyncio/windows_utils.py',
   'PYMODULE'),
  ('asyncio.selector_events',
   '/usr/lib64/python3.9/asyncio/selector_events.py',
   'PYMODULE'),
  ('asyncio.proactor_events',
   '/usr/lib64/python3.9/asyncio/proactor_events.py',
   'PYMODULE'),
  ('asyncio.base_subprocess',
   '/usr/lib64/python3.9/asyncio/base_subprocess.py',
   'PYMODULE'),
  ('asyncio.threads', '/usr/lib64/python3.9/asyncio/threads.py', 'PYMODULE'),
  ('asyncio.subprocess',
   '/usr/lib64/python3.9/asyncio/subprocess.py',
   'PYMODULE'),
  ('asyncio.streams', '/usr/lib64/python3.9/asyncio/streams.py', 'PYMODULE'),
  ('asyncio.queues', '/usr/lib64/python3.9/asyncio/queues.py', 'PYMODULE'),
  ('asyncio.runners', '/usr/lib64/python3.9/asyncio/runners.py', 'PYMODULE'),
  ('asyncio.base_events',
   '/usr/lib64/python3.9/asyncio/base_events.py',
   'PYMODULE'),
  ('concurrent.futures',
   '/usr/lib64/python3.9/concurrent/futures/__init__.py',
   'PYMODULE'),
  ('concurrent.futures.thread',
   '/usr/lib64/python3.9/concurrent/futures/thread.py',
   'PYMODULE'),
  ('queue', '/usr/lib64/python3.9/queue.py', 'PYMODULE'),
  ('concurrent.futures.process',
   '/usr/lib64/python3.9/concurrent/futures/process.py',
   'PYMODULE'),
  ('multiprocessing.queues',
   '/usr/lib64/python3.9/multiprocessing/queues.py',
   'PYMODULE'),
  ('multiprocessing.synchronize',
   '/usr/lib64/python3.9/multiprocessing/synchronize.py',
   'PYMODULE'),
  ('multiprocessing.heap',
   '/usr/lib64/python3.9/multiprocessing/heap.py',
   'PYMODULE'),
  ('multiprocessing.resource_tracker',
   '/usr/lib64/python3.9/multiprocessing/resource_tracker.py',
   'PYMODULE'),
  ('multiprocessing.spawn',
   '/usr/lib64/python3.9/multiprocessing/spawn.py',
   'PYMODULE'),
  ('runpy', '/usr/lib64/python3.9/runpy.py', 'PYMODULE'),
  ('pkgutil', '/usr/lib64/python3.9/pkgutil.py', 'PYMODULE'),
  ('zipimport', '/usr/lib64/python3.9/zipimport.py', 'PYMODULE'),
  ('importlib.util', '/usr/lib64/python3.9/importlib/util.py', 'PYMODULE'),
  ('multiprocessing.process',
   '/usr/lib64/python3.9/multiprocessing/process.py',
   'PYMODULE'),
  ('multiprocessing.util',
   '/usr/lib64/python3.9/multiprocessing/util.py',
   'PYMODULE'),
  ('multiprocessing.forkserver',
   '/usr/lib64/python3.9/multiprocessing/forkserver.py',
   'PYMODULE'),
  ('multiprocessing.context',
   '/usr/lib64/python3.9/multiprocessing/context.py',
   'PYMODULE'),
  ('multiprocessing.popen_spawn_win32',
   '/usr/lib64/python3.9/multiprocessing/popen_spawn_win32.py',
   'PYMODULE'),
  ('multiprocessing.popen_forkserver',
   '/usr/lib64/python3.9/multiprocessing/popen_forkserver.py',
   'PYMODULE'),
  ('multiprocessing.popen_spawn_posix',
   '/usr/lib64/python3.9/multiprocessing/popen_spawn_posix.py',
   'PYMODULE'),
  ('multiprocessing.popen_fork',
   '/usr/lib64/python3.9/multiprocessing/popen_fork.py',
   'PYMODULE'),
  ('multiprocessing.sharedctypes',
   '/usr/lib64/python3.9/multiprocessing/sharedctypes.py',
   'PYMODULE'),
  ('ctypes', '/usr/lib64/python3.9/ctypes/__init__.py', 'PYMODULE'),
  ('ctypes._endian', '/usr/lib64/python3.9/ctypes/_endian.py', 'PYMODULE'),
  ('multiprocessing.pool',
   '/usr/lib64/python3.9/multiprocessing/pool.py',
   'PYMODULE'),
  ('multiprocessing.dummy',
   '/usr/lib64/python3.9/multiprocessing/dummy/__init__.py',
   'PYMODULE'),
  ('multiprocessing.dummy.connection',
   '/usr/lib64/python3.9/multiprocessing/dummy/connection.py',
   'PYMODULE'),
  ('multiprocessing.managers',
   '/usr/lib64/python3.9/multiprocessing/managers.py',
   'PYMODULE'),
  ('multiprocessing.shared_memory',
   '/usr/lib64/python3.9/multiprocessing/shared_memory.py',
   'PYMODULE'),
  ('secrets', '/usr/lib64/python3.9/secrets.py', 'PYMODULE'),
  ('hmac', '/usr/lib64/python3.9/hmac.py', 'PYMODULE'),
  ('multiprocessing.reduction',
   '/usr/lib64/python3.9/multiprocessing/reduction.py',
   'PYMODULE'),
  ('multiprocessing.resource_sharer',
   '/usr/lib64/python3.9/multiprocessing/resource_sharer.py',
   'PYMODULE'),
  ('multiprocessing.connection',
   '/usr/lib64/python3.9/multiprocessing/connection.py',
   'PYMODULE'),
  ('xmlrpc.client', '/usr/lib64/python3.9/xmlrpc/client.py', 'PYMODULE'),
  ('xmlrpc', '/usr/lib64/python3.9/xmlrpc/__init__.py', 'PYMODULE'),
  ('gzip', '/usr/lib64/python3.9/gzip.py', 'PYMODULE'),
  ('_compression', '/usr/lib64/python3.9/_compression.py', 'PYMODULE'),
  ('xml.parsers.expat',
   '/usr/lib64/python3.9/xml/parsers/expat.py',
   'PYMODULE'),
  ('xml.parsers', '/usr/lib64/python3.9/xml/parsers/__init__.py', 'PYMODULE'),
  ('xml', '/usr/lib64/python3.9/xml/__init__.py', 'PYMODULE'),
  ('xml.sax.expatreader',
   '/usr/lib64/python3.9/xml/sax/expatreader.py',
   'PYMODULE'),
  ('xml.sax.saxutils', '/usr/lib64/python3.9/xml/sax/saxutils.py', 'PYMODULE'),
  ('urllib.request', '/usr/lib64/python3.9/urllib/request.py', 'PYMODULE'),
  ('fnmatch', '/usr/lib64/python3.9/fnmatch.py', 'PYMODULE'),
  ('getpass', '/usr/lib64/python3.9/getpass.py', 'PYMODULE'),
  ('nturl2path', '/usr/lib64/python3.9/nturl2path.py', 'PYMODULE'),
  ('ftplib', '/usr/lib64/python3.9/ftplib.py', 'PYMODULE'),
  ('netrc', '/usr/lib64/python3.9/netrc.py', 'PYMODULE'),
  ('shlex', '/usr/lib64/python3.9/shlex.py', 'PYMODULE'),
  ('mimetypes', '/usr/lib64/python3.9/mimetypes.py', 'PYMODULE'),
  ('email.utils', '/usr/lib64/python3.9/email/utils.py', 'PYMODULE'),
  ('email.charset', '/usr/lib64/python3.9/email/charset.py', 'PYMODULE'),
  ('email.encoders', '/usr/lib64/python3.9/email/encoders.py', 'PYMODULE'),
  ('quopri', '/usr/lib64/python3.9/quopri.py', 'PYMODULE'),
  ('email.errors', '/usr/lib64/python3.9/email/errors.py', 'PYMODULE'),
  ('email.quoprimime', '/usr/lib64/python3.9/email/quoprimime.py', 'PYMODULE'),
  ('email.base64mime', '/usr/lib64/python3.9/email/base64mime.py', 'PYMODULE'),
  ('email._parseaddr', '/usr/lib64/python3.9/email/_parseaddr.py', 'PYMODULE'),
  ('http.cookiejar', '/usr/lib64/python3.9/http/cookiejar.py', 'PYMODULE'),
  ('http', '/usr/lib64/python3.9/http/__init__.py', 'PYMODULE'),
  ('urllib', '/usr/lib64/python3.9/urllib/__init__.py', 'PYMODULE'),
  ('urllib.response', '/usr/lib64/python3.9/urllib/response.py', 'PYMODULE'),
  ('urllib.error', '/usr/lib64/python3.9/urllib/error.py', 'PYMODULE'),
  ('posixpath', '/usr/lib64/python3.9/posixpath.py', 'PYMODULE'),
  ('genericpath', '/usr/lib64/python3.9/genericpath.py', 'PYMODULE'),
  ('email', '/usr/lib64/python3.9/email/__init__.py', 'PYMODULE'),
  ('email.parser', '/usr/lib64/python3.9/email/parser.py', 'PYMODULE'),
  ('email._policybase',
   '/usr/lib64/python3.9/email/_policybase.py',
   'PYMODULE'),
  ('email.feedparser', '/usr/lib64/python3.9/email/feedparser.py', 'PYMODULE'),
  ('email.message', '/usr/lib64/python3.9/email/message.py', 'PYMODULE'),
  ('email.policy', '/usr/lib64/python3.9/email/policy.py', 'PYMODULE'),
  ('email.contentmanager',
   '/usr/lib64/python3.9/email/contentmanager.py',
   'PYMODULE'),
  ('email.headerregistry',
   '/usr/lib64/python3.9/email/headerregistry.py',
   'PYMODULE'),
  ('email.iterators', '/usr/lib64/python3.9/email/iterators.py', 'PYMODULE'),
  ('email.generator', '/usr/lib64/python3.9/email/generator.py', 'PYMODULE'),
  ('email._encoded_words',
   '/usr/lib64/python3.9/email/_encoded_words.py',
   'PYMODULE'),
  ('uu', '/usr/lib64/python3.9/uu.py', 'PYMODULE'),
  ('optparse', '/usr/lib64/python3.9/optparse.py', 'PYMODULE'),
  ('textwrap', '/usr/lib64/python3.9/textwrap.py', 'PYMODULE'),
  ('email._header_value_parser',
   '/usr/lib64/python3.9/email/_header_value_parser.py',
   'PYMODULE'),
  ('email.header', '/usr/lib64/python3.9/email/header.py', 'PYMODULE'),
  ('xml.sax', '/usr/lib64/python3.9/xml/sax/__init__.py', 'PYMODULE'),
  ('xml.sax.handler', '/usr/lib64/python3.9/xml/sax/handler.py', 'PYMODULE'),
  ('xml.sax._exceptions',
   '/usr/lib64/python3.9/xml/sax/_exceptions.py',
   'PYMODULE'),
  ('xml.sax.xmlreader',
   '/usr/lib64/python3.9/xml/sax/xmlreader.py',
   'PYMODULE'),
  ('urllib.parse', '/usr/lib64/python3.9/urllib/parse.py', 'PYMODULE'),
  ('http.client', '/usr/lib64/python3.9/http/client.py', 'PYMODULE'),
  ('multiprocessing',
   '/usr/lib64/python3.9/multiprocessing/__init__.py',
   'PYMODULE'),
  ('concurrent.futures._base',
   '/usr/lib64/python3.9/concurrent/futures/_base.py',
   'PYMODULE'),
  ('concurrent', '/usr/lib64/python3.9/concurrent/__init__.py', 'PYMODULE'),
  ('asyncio.trsock', '/usr/lib64/python3.9/asyncio/trsock.py', 'PYMODULE'),
  ('asyncio.staggered',
   '/usr/lib64/python3.9/asyncio/staggered.py',
   'PYMODULE'),
  ('typing', '/usr/lib64/python3.9/typing.py', 'PYMODULE'),
  ('asyncio.tasks', '/usr/lib64/python3.9/asyncio/tasks.py', 'PYMODULE'),
  ('asyncio.base_tasks',
   '/usr/lib64/python3.9/asyncio/base_tasks.py',
   'PYMODULE'),
  ('asyncio.locks', '/usr/lib64/python3.9/asyncio/locks.py', 'PYMODULE'),
  ('asyncio.sslproto', '/usr/lib64/python3.9/asyncio/sslproto.py', 'PYMODULE'),
  ('asyncio.transports',
   '/usr/lib64/python3.9/asyncio/transports.py',
   'PYMODULE'),
  ('asyncio.protocols',
   '/usr/lib64/python3.9/asyncio/protocols.py',
   'PYMODULE'),
  ('asyncio.futures', '/usr/lib64/python3.9/asyncio/futures.py', 'PYMODULE'),
  ('asyncio.exceptions',
   '/usr/lib64/python3.9/asyncio/exceptions.py',
   'PYMODULE'),
  ('asyncio.events', '/usr/lib64/python3.9/asyncio/events.py', 'PYMODULE'),
  ('asyncio.coroutines',
   '/usr/lib64/python3.9/asyncio/coroutines.py',
   'PYMODULE'),
  ('asyncio.base_futures',
   '/usr/lib64/python3.9/asyncio/base_futures.py',
   'PYMODULE'),
  ('asyncio.format_helpers',
   '/usr/lib64/python3.9/asyncio/format_helpers.py',
   'PYMODULE'),
  ('asyncio.constants',
   '/usr/lib64/python3.9/asyncio/constants.py',
   'PYMODULE'),
  ('unittest.signals', '/usr/lib64/python3.9/unittest/signals.py', 'PYMODULE'),
  ('unittest.main', '/usr/lib64/python3.9/unittest/main.py', 'PYMODULE'),
  ('unittest.runner', '/usr/lib64/python3.9/unittest/runner.py', 'PYMODULE'),
  ('unittest.loader', '/usr/lib64/python3.9/unittest/loader.py', 'PYMODULE'),
  ('unittest.suite', '/usr/lib64/python3.9/unittest/suite.py', 'PYMODULE'),
  ('unittest.case', '/usr/lib64/python3.9/unittest/case.py', 'PYMODULE'),
  ('unittest._log', '/usr/lib64/python3.9/unittest/_log.py', 'PYMODULE'),
  ('unittest.result', '/usr/lib64/python3.9/unittest/result.py', 'PYMODULE'),
  ('unittest.util', '/usr/lib64/python3.9/unittest/util.py', 'PYMODULE'),
  ('pdb', '/usr/lib64/python3.9/pdb.py', 'PYMODULE'),
  ('pydoc', '/usr/lib64/python3.9/pydoc.py', 'PYMODULE'),
  ('webbrowser', '/usr/lib64/python3.9/webbrowser.py', 'PYMODULE'),
  ('http.server', '/usr/lib64/python3.9/http/server.py', 'PYMODULE'),
  ('socketserver', '/usr/lib64/python3.9/socketserver.py', 'PYMODULE'),
  ('html', '/usr/lib64/python3.9/html/__init__.py', 'PYMODULE'),
  ('html.entities', '/usr/lib64/python3.9/html/entities.py', 'PYMODULE'),
  ('pydoc_data.topics',
   '/usr/lib64/python3.9/pydoc_data/topics.pyc',
   'PYMODULE'),
  ('pydoc_data', '/usr/lib64/python3.9/pydoc_data/__init__.py', 'PYMODULE'),
  ('tty', '/usr/lib64/python3.9/tty.py', 'PYMODULE'),
  ('sysconfig', '/usr/lib64/python3.9/sysconfig.py', 'PYMODULE'),
  ('_sysconfigdata__linux_x86_64-linux-gnu',
   '/usr/lib64/python3.9/_sysconfigdata__linux_x86_64-linux-gnu.py',
   'PYMODULE'),
  ('_aix_support', '/usr/lib64/python3.9/_aix_support.py', 'PYMODULE'),
  ('_bootsubprocess', '/usr/lib64/python3.9/_bootsubprocess.py', 'PYMODULE'),
  ('_osx_support', '/usr/lib64/python3.9/_osx_support.py', 'PYMODULE'),
  ('distutils.log', '/usr/lib64/python3.9/distutils/log.py', 'PYMODULE'),
  ('distutils', '/usr/lib64/python3.9/distutils/__init__.py', 'PYMODULE'),
  ('platform', '/usr/lib64/python3.9/platform.py', 'PYMODULE'),
  ('plistlib', '/usr/lib64/python3.9/plistlib.py', 'PYMODULE'),
  ('glob', '/usr/lib64/python3.9/glob.py', 'PYMODULE'),
  ('code', '/usr/lib64/python3.9/code.py', 'PYMODULE'),
  ('codeop', '/usr/lib64/python3.9/codeop.py', 'PYMODULE'),
  ('bdb', '/usr/lib64/python3.9/bdb.py', 'PYMODULE'),
  ('cmd', '/usr/lib64/python3.9/cmd.py', 'PYMODULE'),
  ('difflib', '/usr/lib64/python3.9/difflib.py', 'PYMODULE'),
  ('__future__', '/usr/lib64/python3.9/__future__.py', 'PYMODULE'),
  ('_compat_pickle', '/usr/lib64/python3.9/_compat_pickle.py', 'PYMODULE'),
  ('threading', '/usr/lib64/python3.9/threading.py', 'PYMODULE'),
  ('_threading_local', '/usr/lib64/python3.9/_threading_local.py', 'PYMODULE'),
  ('string', '/usr/lib64/python3.9/string.py', 'PYMODULE'),
  ('bisect', '/usr/lib64/python3.9/bisect.py', 'PYMODULE'),
  ('shutil', '/usr/lib64/python3.9/shutil.py', 'PYMODULE'),
  ('tarfile', '/usr/lib64/python3.9/tarfile.py', 'PYMODULE'),
  ('lzma', '/usr/lib64/python3.9/lzma.py', 'PYMODULE'),
  ('bz2', '/usr/lib64/python3.9/bz2.py', 'PYMODULE'),
  ('zipfile', '/usr/lib64/python3.9/zipfile.py', 'PYMODULE'),
  ('py_compile', '/usr/lib64/python3.9/py_compile.py', 'PYMODULE'),
  ('pathlib', '/usr/lib64/python3.9/pathlib.py', 'PYMODULE'),
  ('ntpath', '/usr/lib64/python3.9/ntpath.py', 'PYMODULE'),
  ('importlib._bootstrap_external',
   '/usr/lib64/python3.9/importlib/_bootstrap_external.py',
   'PYMODULE'),
  ('importlib.metadata',
   '/usr/lib64/python3.9/importlib/metadata.py',
   'PYMODULE'),
  ('configparser', '/usr/lib64/python3.9/configparser.py', 'PYMODULE'),
  ('csv', '/usr/lib64/python3.9/csv.py', 'PYMODULE'),
  ('importlib.abc', '/usr/lib64/python3.9/importlib/abc.py', 'PYMODULE'),
  ('importlib._bootstrap',
   '/usr/lib64/python3.9/importlib/_bootstrap.py',
   'PYMODULE'),
  ('token', '/usr/lib64/python3.9/token.py', 'PYMODULE'),
  ('tokenize', '/usr/lib64/python3.9/tokenize.py', 'PYMODULE'),
  ('importlib.machinery',
   '/usr/lib64/python3.9/importlib/machinery.py',
   'PYMODULE'),
  ('dis', '/usr/lib64/python3.9/dis.py', 'PYMODULE'),
  ('opcode', '/usr/lib64/python3.9/opcode.py', 'PYMODULE'),
  ('ast', '/usr/lib64/python3.9/ast.py', 'PYMODULE'),
  ('urllib3',
   '/home/vlku/.local/lib/python3.9/site-packages/urllib3/__init__.py',
   'PYMODULE'),
  ('urllib3.util.url',
   '/home/vlku/.local/lib/python3.9/site-packages/urllib3/util/url.py',
   'PYMODULE'),
  ('urllib3.util',
   '/home/vlku/.local/lib/python3.9/site-packages/urllib3/util/__init__.py',
   'PYMODULE'),
  ('urllib3.util.wait',
   '/home/vlku/.local/lib/python3.9/site-packages/urllib3/util/wait.py',
   'PYMODULE'),
  ('urllib3.util.ssl_',
   '/home/vlku/.local/lib/python3.9/site-packages/urllib3/util/ssl_.py',
   'PYMODULE'),
  ('urllib3.util.ssltransport',
   '/home/vlku/.local/lib/python3.9/site-packages/urllib3/util/ssltransport.py',
   'PYMODULE'),
  ('urllib3.util.response',
   '/home/vlku/.local/lib/python3.9/site-packages/urllib3/util/response.py',
   'PYMODULE'),
  ('urllib3.util.connection',
   '/home/vlku/.local/lib/python3.9/site-packages/urllib3/util/connection.py',
   'PYMODULE'),
  ('urllib3.contrib._appengine_environ',
   '/home/vlku/.local/lib/python3.9/site-packages/urllib3/contrib/_appengine_environ.py',
   'PYMODULE'),
  ('urllib3.contrib',
   '/home/vlku/.local/lib/python3.9/site-packages/urllib3/contrib/__init__.py',
   'PYMODULE'),
  ('urllib3.contrib.pyopenssl',
   '/home/vlku/.local/lib/python3.9/site-packages/urllib3/contrib/pyopenssl.py',
   'PYMODULE'),
  ('urllib3.packages.backports.makefile',
   '/home/vlku/.local/lib/python3.9/site-packages/urllib3/packages/backports/makefile.py',
   'PYMODULE'),
  ('urllib3.packages.backports',
   '/home/vlku/.local/lib/python3.9/site-packages/urllib3/packages/backports/__init__.py',
   'PYMODULE'),
  ('idna',
   '/home/vlku/.local/lib/python3.9/site-packages/idna/__init__.py',
   'PYMODULE'),
  ('idna.intranges',
   '/home/vlku/.local/lib/python3.9/site-packages/idna/intranges.py',
   'PYMODULE'),
  ('idna.core',
   '/home/vlku/.local/lib/python3.9/site-packages/idna/core.py',
   'PYMODULE'),
  ('idna.uts46data',
   '/home/vlku/.local/lib/python3.9/site-packages/idna/uts46data.py',
   'PYMODULE'),
  ('idna.idnadata',
   '/home/vlku/.local/lib/python3.9/site-packages/idna/idnadata.py',
   'PYMODULE'),
  ('idna.package_data',
   '/home/vlku/.local/lib/python3.9/site-packages/idna/package_data.py',
   'PYMODULE'),
  ('urllib3.packages.six',
   '/home/vlku/.local/lib/python3.9/site-packages/urllib3/packages/six.py',
   'PYMODULE'),
  ('urllib3.packages',
   '/home/vlku/.local/lib/python3.9/site-packages/urllib3/packages/__init__.py',
   'PYMODULE'),
  ('urllib3.packages.ssl_match_hostname',
   '/home/vlku/.local/lib/python3.9/site-packages/urllib3/packages/ssl_match_hostname/__init__.py',
   'PYMODULE'),
  ('urllib3.packages.ssl_match_hostname._implementation',
   '/home/vlku/.local/lib/python3.9/site-packages/urllib3/packages/ssl_match_hostname/_implementation.py',
   'PYMODULE'),
  ('ipaddress', '/usr/lib64/python3.9/ipaddress.py', 'PYMODULE'),
  ('urllib3.util.timeout',
   '/home/vlku/.local/lib/python3.9/site-packages/urllib3/util/timeout.py',
   'PYMODULE'),
  ('urllib3.util.retry',
   '/home/vlku/.local/lib/python3.9/site-packages/urllib3/util/retry.py',
   'PYMODULE'),
  ('urllib3.util.request',
   '/home/vlku/.local/lib/python3.9/site-packages/urllib3/util/request.py',
   'PYMODULE'),
  ('urllib3.response',
   '/home/vlku/.local/lib/python3.9/site-packages/urllib3/response.py',
   'PYMODULE'),
  ('urllib3.connection',
   '/home/vlku/.local/lib/python3.9/site-packages/urllib3/connection.py',
   'PYMODULE'),
  ('urllib3.util.proxy',
   '/home/vlku/.local/lib/python3.9/site-packages/urllib3/util/proxy.py',
   'PYMODULE'),
  ('urllib3._collections',
   '/home/vlku/.local/lib/python3.9/site-packages/urllib3/_collections.py',
   'PYMODULE'),
  ('urllib3.poolmanager',
   '/home/vlku/.local/lib/python3.9/site-packages/urllib3/poolmanager.py',
   'PYMODULE'),
  ('urllib3.request',
   '/home/vlku/.local/lib/python3.9/site-packages/urllib3/request.py',
   'PYMODULE'),
  ('urllib3.filepost',
   '/home/vlku/.local/lib/python3.9/site-packages/urllib3/filepost.py',
   'PYMODULE'),
  ('urllib3.fields',
   '/home/vlku/.local/lib/python3.9/site-packages/urllib3/fields.py',
   'PYMODULE'),
  ('urllib3.connectionpool',
   '/home/vlku/.local/lib/python3.9/site-packages/urllib3/connectionpool.py',
   'PYMODULE'),
  ('urllib3.util.queue',
   '/home/vlku/.local/lib/python3.9/site-packages/urllib3/util/queue.py',
   'PYMODULE'),
  ('urllib3._version',
   '/home/vlku/.local/lib/python3.9/site-packages/urllib3/_version.py',
   'PYMODULE'),
  ('urllib3.exceptions',
   '/home/vlku/.local/lib/python3.9/site-packages/urllib3/exceptions.py',
   'PYMODULE'),
  ('requests',
   '/home/vlku/.local/lib/python3.9/site-packages/requests/__init__.py',
   'PYMODULE'),
  ('requests.status_codes',
   '/home/vlku/.local/lib/python3.9/site-packages/requests/status_codes.py',
   'PYMODULE'),
  ('requests.structures',
   '/home/vlku/.local/lib/python3.9/site-packages/requests/structures.py',
   'PYMODULE'),
  ('requests.compat',
   '/home/vlku/.local/lib/python3.9/site-packages/requests/compat.py',
   'PYMODULE'),
  ('http.cookies', '/usr/lib64/python3.9/http/cookies.py', 'PYMODULE'),
  ('requests.api',
   '/home/vlku/.local/lib/python3.9/site-packages/requests/api.py',
   'PYMODULE'),
  ('requests.sessions',
   '/home/vlku/.local/lib/python3.9/site-packages/requests/sessions.py',
   'PYMODULE'),
  ('requests.adapters',
   '/home/vlku/.local/lib/python3.9/site-packages/requests/adapters.py',
   'PYMODULE'),
  ('urllib3.contrib.socks',
   '/home/vlku/.local/lib/python3.9/site-packages/urllib3/contrib/socks.py',
   'PYMODULE'),
  ('requests._internal_utils',
   '/home/vlku/.local/lib/python3.9/site-packages/requests/_internal_utils.py',
   'PYMODULE'),
  ('requests.hooks',
   '/home/vlku/.local/lib/python3.9/site-packages/requests/hooks.py',
   'PYMODULE'),
  ('requests.cookies',
   '/home/vlku/.local/lib/python3.9/site-packages/requests/cookies.py',
   'PYMODULE'),
  ('requests.auth',
   '/home/vlku/.local/lib/python3.9/site-packages/requests/auth.py',
   'PYMODULE'),
  ('requests.models',
   '/home/vlku/.local/lib/python3.9/site-packages/requests/models.py',
   'PYMODULE'),
  ('requests.packages',
   '/home/vlku/.local/lib/python3.9/site-packages/requests/packages.py',
   'PYMODULE'),
  ('requests.utils',
   '/home/vlku/.local/lib/python3.9/site-packages/requests/utils.py',
   'PYMODULE'),
  ('requests.certs',
   '/home/vlku/.local/lib/python3.9/site-packages/requests/certs.py',
   'PYMODULE'),
  ('certifi',
   '/home/vlku/.local/lib/python3.9/site-packages/certifi/__init__.py',
   'PYMODULE'),
  ('certifi.core',
   '/home/vlku/.local/lib/python3.9/site-packages/certifi/core.py',
   'PYMODULE'),
  ('importlib.resources',
   '/usr/lib64/python3.9/importlib/resources.py',
   'PYMODULE'),
  ('requests.__version__',
   '/home/vlku/.local/lib/python3.9/site-packages/requests/__version__.py',
   'PYMODULE'),
  ('charset_normalizer',
   '/home/vlku/.local/lib/python3.9/site-packages/charset_normalizer/__init__.py',
   'PYMODULE'),
  ('charset_normalizer.version',
   '/home/vlku/.local/lib/python3.9/site-packages/charset_normalizer/version.py',
   'PYMODULE'),
  ('charset_normalizer.utils',
   '/home/vlku/.local/lib/python3.9/site-packages/charset_normalizer/utils.py',
   'PYMODULE'),
  ('charset_normalizer.constant',
   '/home/vlku/.local/lib/python3.9/site-packages/charset_normalizer/constant.py',
   'PYMODULE'),
  ('charset_normalizer.assets',
   '/home/vlku/.local/lib/python3.9/site-packages/charset_normalizer/assets/__init__.py',
   'PYMODULE'),
  ('charset_normalizer.models',
   '/home/vlku/.local/lib/python3.9/site-packages/charset_normalizer/models.py',
   'PYMODULE'),
  ('charset_normalizer.cd',
   '/home/vlku/.local/lib/python3.9/site-packages/charset_normalizer/cd.py',
   'PYMODULE'),
  ('charset_normalizer.md',
   '/home/vlku/.local/lib/python3.9/site-packages/charset_normalizer/md.py',
   'PYMODULE'),
  ('charset_normalizer.legacy',
   '/home/vlku/.local/lib/python3.9/site-packages/charset_normalizer/legacy.py',
   'PYMODULE'),
  ('charset_normalizer.api',
   '/home/vlku/.local/lib/python3.9/site-packages/charset_normalizer/api.py',
   'PYMODULE'),
  ('requests.exceptions',
   '/home/vlku/.local/lib/python3.9/site-packages/requests/exceptions.py',
   'PYMODULE'),
  ('json', '/usr/lib64/python3.9/json/__init__.py', 'PYMODULE'),
  ('json.encoder', '/usr/lib64/python3.9/json/encoder.py', 'PYMODULE'),
  ('json.decoder', '/usr/lib64/python3.9/json/decoder.py', 'PYMODULE'),
  ('json.scanner', '/usr/lib64/python3.9/json/scanner.py', 'PYMODULE'),
  ('_py_abc', '/usr/lib64/python3.9/_py_abc.py', 'PYMODULE'),
  ('tracemalloc', '/usr/lib64/python3.9/tracemalloc.py', 'PYMODULE'),
  ('stringprep', '/usr/lib64/python3.9/stringprep.py', 'PYMODULE'),
  ('cmddelete',
   '/mnt/c/Users/paulwilk/code/bitbucket/stuff/vman/src/cmddelete.py',
   'PYMODULE'),
  ('vapi',
   '/mnt/c/Users/paulwilk/code/bitbucket/stuff/vman/src/vapi.py',
   'PYMODULE'),
  ('cmdlaunch',
   '/mnt/c/Users/paulwilk/code/bitbucket/stuff/vman/src/cmdlaunch.py',
   'PYMODULE'),
  ('cmdadd',
   '/mnt/c/Users/paulwilk/code/bitbucket/stuff/vman/src/cmdadd.py',
   'PYMODULE'),
  ('cmdshow',
   '/mnt/c/Users/paulwilk/code/bitbucket/stuff/vman/src/cmdshow.py',
   'PYMODULE'),
  ('cmdlist',
   '/mnt/c/Users/paulwilk/code/bitbucket/stuff/vman/src/cmdlist.py',
   'PYMODULE'),
  ('argparse', '/usr/lib64/python3.9/argparse.py', 'PYMODULE'),
  ('os', '/usr/lib64/python3.9/os.py', 'PYMODULE')])
